GARCH em Ações
…
params

## # A tibble: 91 x 8
##    symbol    length     omega alpha1  beta1 check instant_volatility sample_volatility
##    <chr>      <int>     <dbl>  <dbl>  <dbl> <lgl>              <dbl>             <dbl>
##  1 RRRP3.SA     277 0.000687  0.189  0.145  TRUE                46.4              50.9
##  2 ALPA4.SA     742 0.000118  0.137  0.698  TRUE                36.6              47.5
##  3 ABEV3.SA     742 0.000105  0.209  0.579  TRUE                25.3              35.5
##  4 AMER3.SA     742 0.0000539 0.0743 0.888  TRUE                57.4              63.2
##  5 ASAI3.SA     209 0.0000145 0.0728 0.887  TRUE                33.9              30.0
##  6 AZUL4.SA     742 0.0000408 0.139  0.846  TRUE                67.1              77.2
##  7 B3SA3.SA     742 0.0000310 0.0904 0.863  TRUE                33.7              43.8
##  8 BIDI11.SA    603 0.00110   0.481  0.0622 TRUE                54.6              73.5
##  9 BPAN4.SA     742 0.000200  0.359  0.589  TRUE                45.7              75.2
## 10 BBSE3.SA     742 0.0000169 0.0893 0.853  TRUE                20.4              30.5
## # ... with 81 more rows
…
\[
\mathrm{Var}\,r_t = \frac{\omega}{1 - \alpha_1 - \beta_1}
\]

params <- params |>
  mutate(
    lt_variance = omega / (1 - alpha1 - beta1),
    lt_volatility = 100 * sqrt(lt_variance * 252)
  ) |>
  select(-lt_variance)

params

## # A tibble: 91 x 9
##    symbol    length     omega alpha1  beta1 check instant_volatility sample_volatility lt_volatility
##    <chr>      <int>     <dbl>  <dbl>  <dbl> <lgl>              <dbl>             <dbl>         <dbl>
##  1 RRRP3.SA     277 0.000687  0.189  0.145  TRUE                46.4              50.9          51.0
##  2 ALPA4.SA     742 0.000118  0.137  0.698  TRUE                36.6              47.5          42.4
##  3 ABEV3.SA     742 0.000105  0.209  0.579  TRUE                25.3              35.5          35.2
##  4 AMER3.SA     742 0.0000539 0.0743 0.888  TRUE                57.4              63.2          60.0
##  5 ASAI3.SA     209 0.0000145 0.0728 0.887  TRUE                33.9              30.0          30.3
##  6 AZUL4.SA     742 0.0000408 0.139  0.846  TRUE                67.1              77.2          83.7
##  7 B3SA3.SA     742 0.0000310 0.0904 0.863  TRUE                33.7              43.8          41.1
##  8 BIDI11.SA    603 0.00110   0.481  0.0622 TRUE                54.6              73.5          77.7
##  9 BPAN4.SA     742 0.000200  0.359  0.589  TRUE                45.7              75.2          99.1
## 10 BBSE3.SA     742 0.0000169 0.0893 0.853  TRUE                20.4              30.5          27.3
## # ... with 81 more rows
…
